Lab 5: Intro to ggplot
…
# Now, let's find countries with smaller populations in 2007
smaller_countries <- gapminder %>%
  filter(year == 2007, pop < ireland_pop_2007) %>%
  select(country, pop) %>%
  arrange(desc(pop))

# View the results
print(smaller_countries)

# A tibble: 31 × 2
   country                pop
   <fct>                <int>
 1 West Bank and Gaza 4018332
 2 Puerto Rico        3942491
 3 Lebanon            3921278
 4 Congo, Rep.        3800610
 5 Albania            3600523
 6 Uruguay            3447496
 7 Mauritania         3270065
 8 Panama             3242173
 9 Oman               3204897
10 Liberia            3193942
# ℹ 21 more rows
…
